{
    "preset": "psr12",
    "rules": {
        "blank_line_before_statement": true,
        "class_attributes_separation": true,
        "function_declaration": true,
        "method_argument_space": false,
        "method_chaining_indentation": true,
        "multiline_whitespace_before_semicolons": true,
        "new_with_parentheses": false,
        "class_definition": true,
        "no_superfluous_phpdoc_tags": true,
        "no_unused_imports": true,
        "not_operator_with_successor_space": false,
        "nullable_type_declaration": true,
        "phpdoc_trim": true,
        "single_line_empty_body": true,
        "single_quote": true,
        "trailing_comma_in_multiline": false,
        "trim_array_spaces": true
    }
}
